{
	"id": "bbb82adf-a4c1-49ff-ae04-25b94c51da04",
	"name": "beta",
	"values": [
		{
			"key": "baseUrl",
			"value": "https://api-beta.getcraft.com",
			"enabled": true
		},
		{
			"key": "token",
			"value": "eyJhbGciOiJIUzI1NiIsInR5cCI6IkpXVCJ9.eyJ1c2VyIjoiXCI1ZWUwNDQ4MjA2MjJlNTAwMWI1OTAwNTRcIiIsImlhdCI6MTU5MjI4Nzc1NCwiYXVkIjoiZ2V0Y3JhZnQuY29tIiwiaXNzIjoiZ2V0Y3JhZnQuY29tIn0.AEXIElBnRwqS9DzQkbP3u-cXBWG7MRbSWhXAOamxny4",
			"enabled": true
		},
		{
			"key": "profileId",
			"value": "5ee0448228e8ef001bbda22c",
			"enabled": true
		},
		{
			"key": "userId",
			"value": "5ee044820622e5001b590054",
			"enabled": true
		},
		{
			"key": "projectId",
			"value": "5ee85c70f79f5e0001a2680d",
			"enabled": true
		},
		{
			"key": "roomId",
			"value": "5e829a76b5996b00016b9c59",
			"enabled": true
		},
		{
			"key": "timestamp",
			"value": 1592287739,
			"enabled": true
		},
		{
			"key": "messageContent",
			"value": "this from postman 1592287730",
			"enabled": true
		},
		{
			"key": "urlKU",
			"value": "https://api-beta.getcraft.com",
			"enabled": true
		},
		{
			"key": "staging",
			"value": "https://api-staging.getcraft.com",
			"enabled": true
		},
		{
			"key": "orderIdnya",
			"value": "5e79d068783da8000182e6ba",
			"enabled": true
		},
		{
			"key": "briefName",
			"value": 417,
			"enabled": true
		},
		{
			"key": "budgetUSD",
			"value": 10.233,
			"enabled": true
		},
		{
			"key": "id",
			"value": "wisp",
			"enabled": true
		},
		{
			"key": "randBudget",
			"value": 102330,
			"enabled": true
		},
		{
			"key": "secret",
			"value": "g*NYHgEqtu@RvKEs_VK6sRA",
			"enabled": true
		},
		{
			"key": "serviceId",
			"value": "59774c1182dd76d441d7cddb",
			"enabled": true
		},
		{
			"key": "orderIdGenerated",
			"value": "5ee8620bf79f5e0001a26829",
			"enabled": true
		},
		{
			"key": "slugGenerated",
			"value": "newman-417",
			"enabled": true
		},
		{
			"key": "referralId",
			"value": "5ee86211d757640001b3c35f",
			"enabled": true
		},
		{
			"key": "projectId2",
			"value": "5ee85c70f79f5e0001a2680d",
			"enabled": true
		},
		{
			"key": "clientid",
			"value": "wisp",
			"enabled": true
		},
		{
			"key": "clientsecret",
			"value": "g*NYHgEqtu@RvKEs_VK6sRA",
			"enabled": true
		},
		{
			"key": "orderDetailId",
			"value": "5ee861eff79f5e0001a26822",
			"enabled": true
		},
		{
			"key": "orderId",
			"value": "5ee861eef79f5e0001a2681b",
			"enabled": true
		},
		{
			"key": "email",
			"value": "fauzan.1592287739@mailnesia.com",
			"enabled": true
		}
	],
	"_postman_variable_scope": "environment",
	"_postman_exported_at": "2020-06-16T06:09:41.243Z",
	"_postman_exported_using": "Postman/7.26.0"
}